{
  "totalItems": 64,
  "itemName": "profile",
  "addItemUrl": "#",
  "downloadUrl": "#",
  "apiEndpoint": "http://localhost:8000/v4/large-investor-profile?limit=10",
  "basePath": "/companies/",
  "subPath": "/investments/large-capital-profile",
  "previous": null,
  "next": "http://localhost:8000/v4/large-investor-profile?limit=10&offset=10",
  "profiles": [
    {
      "headingText": "Mars Exports Ltd",
      "itemId": "1",
      "metadata": [
        {
          "label": "Updated on",
          "value": "5 September 2019"
        }
      ],
      "badges": [
        "United States"
      ]
    },
    {
      "headingText": "Stage One Boutique",
      "itemId": "2",
      "metadata": [
        {
          "label": "Updated on",
          "value": "5 September 2019"
        }
      ],
      "badges": [
        "United States"
      ]
    },
    {
      "headingText": "Onet Technologies",
      "itemId": "3",
      "metadata": [
        {
          "label": "Updated on",
          "value": "5 September 2019"
        }
      ],
      "badges": [
        "United States"
      ]
    },
    {
      "headingText": "Lambda plc",
      "itemId": "4",
      "metadata": [
        {
          "label": "Updated on",
          "value": "5 September 2019"
        }
      ],
      "badges": [
        "United States"
      ]
    },
    {
      "headingText": "One List Corp",
      "itemId": "5",
      "metadata": [
        {
          "label": "Updated on",
          "value": "5 September 2019"
        }
      ],
      "badges": [
        "United States"
      ]
    },
    {
      "headingText": "Angel syndicate",
      "itemId": "6",
      "metadata": [
        {
          "label": "Updated on",
          "value": "5 September 2019"
        }
      ],
      "badges": [
        "United States"
      ]
    },
    {
      "headingText": "Venus Ltd",
      "itemId": "7",
      "metadata": [
        {
          "label": "Updated on",
          "value": "5 September 2019"
        }
      ],
      "badges": [
        "United States"
      ]
    },
    {
      "headingText": "A1 BMW LTD",
      "itemId": "8",
      "metadata": [
        {
          "label": "Updated on",
          "value": "5 September 2019"
        }
      ],
      "badges": [
        "United States"
      ]
    },
    {
      "headingText": "Bargainworld",
      "itemId": "9",
      "metadata": [
        {
          "label": "Updated on",
          "value": "5 September 2019"
        }
      ],
      "badges": [
        "United States"
      ]
    },
    {
      "headingText": "JOHN LEWIS PLC",
      "itemId": "10",
      "metadata": [
        {
          "label": "Updated on",
          "value": "5 September 2019"
        }
      ],
      "badges": [
        "United States"
      ]
    }
  ]
}
